[
{
    "model": "convention.sleep",
    "pk": 1,
    "fields": {
        "code": "FLOOR",
        "name": "Auf dem Boden",
        "beschreibung": "<small class=\"text-warning\"><i class=\"fa fa-fw fa-warning\"></i> Isomatte und Schlafsack mitbringen</small>",
        "preis": "0.00",
        "anzahl": 60,
        "order": 0,
        "packages": [
            1,
            2
        ]
    }
},
{
    "model": "convention.sleep",
    "pk": 2,
    "fields": {
        "code": "DORM",
        "name": "Bett im Schlafsaal",
        "beschreibung": "<small class=\"text-warning\"><i class=\"fa fa-fw fa-warning\"></i> Bettw\u00e4sche erforderlich, KEIN Schlafsack erlaubt</small>",
        "preis": "7.00",
        "anzahl": 18,
        "order": 1,
        "packages": [
            1
        ]
    }
},
{
    "model": "convention.sleep",
    "pk": 3,
    "fields": {
        "code": "FOUR",
        "name": "Bett im Vierbettzimmer",
        "beschreibung": "<small class=\"text-warning\"><i class=\"fa fa-fw fa-warning\"></i> Bettw\u00e4sche erforderlich, KEIN Schlafsack erlaubt</small>",
        "preis": "8.00",
        "anzahl": 8,
        "order": 2,
        "packages": [
            1
        ]
    }
},
{
    "model": "convention.sleep",
    "pk": 4,
    "fields": {
        "code": "DBL",
        "name": "Bett im Zweibettzimmer",
        "beschreibung": "<small class=\"text-warning\"><i class=\"fa fa-fw fa-warning\"></i> Bettw\u00e4sche erforderlich, KEIN Schlafsack erlaubt</small>",
        "preis": "10.00",
        "anzahl": 4,
        "order": 3,
        "packages": [
            1
        ]
    }
},
{
    "model": "convention.sleep",
    "pk": 5,
    "fields": {
        "code": "DBLENS",
        "name": "Bett im Zweibettzimmer (inkl. Du/WC)",
        "beschreibung": "<small class=\"text-warning\"><i class=\"fa fa-fw fa-warning\"></i> Bettw\u00e4sche erforderlich, KEIN Schlafsack erlaubt</small>",
        "preis": "13.00",
        "anzahl": 4,
        "order": 4,
        "packages": [
            1
        ]
    }
},
{
    "model": "convention.package",
    "pk": 1,
    "fields": {
        "code": "ALL",
        "name": "All inclusive",
        "beschreibung": "Workshops, 2x \u00dcbernachtung, Vollverpflegung, Getr\u00e4nke, Transfer",
        "kurz": "Workshops, 2x \u00dcbernachtung, Vollverpflegung, Getr\u00e4nke, Transfer",
        "preis": "64.00",
        "naechte": 2,
        "order": 0
    }
},
{
    "model": "convention.package",
    "pk": 2,
    "fields": {
        "code": "LATE",
        "name": "All inclusive - Sp\u00e4tanreise",
        "beschreibung": "Workshops, 1x \u00dcbernachtung nur von Samstag auf Sonntag, Vollverpflegung, Getr\u00e4nke, Transfer",
        "kurz": "Workshops, 1x \u00dcbernachtung, Vollverpflegung, Getr\u00e4nke, Transfer",
        "preis": "54.00",
        "naechte": 1,
        "order": 1
    }
},
{
    "model": "convention.package",
    "pk": 3,
    "fields": {
        "code": "DAY",
        "name": "Tagesgast",
        "beschreibung": "Workshops, keine \u00dcbernachtung, 2x Mittagessen, Getr\u00e4nke",
        "kurz": "Workshops, keine \u00dcbernachtung, 2x Mittagessen, Getr\u00e4nke",
        "preis": "12.00",
        "naechte": 0,
        "order": 2
    }
}
]
